
Cmd: 1 char
Split: ":"
Time: 5 chars (86400s = 1pvä)

CMD:
F = Force F:0/1:0/1 (Force input1:input2, 0 = off, 1 = on)
T = Time T:00010:10000:66666:00001 (Time switch1On:switch1Off:switch2On:switch2Off)
R = Report R:IP:PORT => Switch sends current status using UDP to this IP/PORT

//This does not work for some reason, "oT" ended up containing the whole packet not just first 5 cells
if(packet[0] == 'T')
{
    char oT[5];
    oT[0] = packet[2];
    oT[1] = packet[3];
    oT[2] = packet[4];
    oT[3] = packet[5];
    oT[4] = packet[6];

    print(oT);
    print(atoi(oT));
}